<svg xmlns="http://www.w3.org/2000/svg" width="119.999" height="120" viewBox="0 0 119.999 120">
  <g id="success" transform="translate(0 0)">
    <path id="Path_276" data-name="Path 276" d="M60,0a60,60,0,1,0,60,60A60.068,60.068,0,0,0,60,0Zm0,115.384A55.385,55.385,0,1,1,115.384,60,55.449,55.449,0,0,1,60,115.384Z" fill="#fff"/>
    <path id="Path_277" data-name="Path 277" d="M74.717,15.744,38,54,15.88,37.613a2.521,2.521,0,0,0-3.357.345,2.105,2.105,0,0,0,.373,3.111l23.89,17.7a2.508,2.508,0,0,0,1.493.485,2.472,2.472,0,0,0,1.787-.743l38.224-39.83a2.1,2.1,0,0,0-.2-3.122A2.522,2.522,0,0,0,74.717,15.744Z" transform="translate(14.553 20.505)" fill="#fff"/>
  </g>
</svg>
