<svg xmlns="http://www.w3.org/2000/svg" width="118.412" height="78.942" viewBox="0 0 118.412 78.942">
  <g id="menu" transform="translate(0 -64)">
    <g id="Group_848" data-name="Group 848" transform="translate(0 64)">
      <g id="Group_847" data-name="Group 847">
        <rect id="Rectangle_305" data-name="Rectangle 305" width="118.412" height="13.157" transform="translate(0 65.785)" fill="#fff"/>
        <rect id="Rectangle_306" data-name="Rectangle 306" width="118.412" height="13.157" transform="translate(0 32.892)" fill="#fff"/>
        <rect id="Rectangle_307" data-name="Rectangle 307" width="118.412" height="13.157" fill="#fff"/>
      </g>
    </g>
  </g>
</svg>
