<svg id="view" xmlns="http://www.w3.org/2000/svg" width="148.016" height="94.34" viewBox="0 0 148.016 94.34">
  <g id="Group_885" data-name="Group 885" transform="translate(0 0)">
    <g id="Group_884" data-name="Group 884">
      <path id="Path_274" data-name="Path 274" d="M147.076,137.126c-1.322-1.809-32.829-44.291-73.068-44.291S2.26,135.317.939,137.124a4.884,4.884,0,0,0,0,5.76c1.321,1.809,32.829,44.291,73.068,44.291s71.746-42.483,73.068-44.29A4.878,4.878,0,0,0,147.076,137.126Zm-73.068,40.29c-29.641,0-55.313-28.2-62.912-37.414,7.59-9.226,33.208-37.408,62.912-37.408,29.639,0,55.309,28.191,62.912,37.414C129.33,149.234,103.712,177.416,74.007,177.416Z" transform="translate(0 -92.835)" fill="#19814a"/>
    </g>
  </g>
  <g id="Group_887" data-name="Group 887" transform="translate(44.729 17.892)">
    <g id="Group_886" data-name="Group 886">
      <path id="Path_275" data-name="Path 275" d="M184,154.725A29.278,29.278,0,1,0,213.278,184,29.312,29.312,0,0,0,184,154.725Zm0,48.8A19.519,19.519,0,1,1,203.519,184,19.54,19.54,0,0,1,184,203.522Z" transform="translate(-154.722 -154.725)" fill="#19814a"/>
    </g>
  </g>
</svg>
