<svg xmlns="http://www.w3.org/2000/svg" xmlns:xlink="http://www.w3.org/1999/xlink" width="24" height="24" viewBox="0 0 24 24">
  <defs>
    <clipPath id="clip-path">
      <circle id="Ellipse_114" data-name="Ellipse 114" cx="12" cy="12" r="12" transform="translate(432 -438)" fill="#fff"/>
    </clipPath>
    <clipPath id="clip-Azerbaijan">
      <rect width="24" height="24"/>
    </clipPath>
  </defs>
  <g id="Azerbaijan" clip-path="url(#clip-Azerbaijan)">
    <g id="Mask_Group_267" data-name="Mask Group 267" transform="translate(-432 438)" clip-path="url(#clip-path)">
      <g id="Group_1579" data-name="Group 1579" transform="translate(-155.737 -725.868)">
        <rect id="Rectangle_2800" data-name="Rectangle 2800" width="48.526" height="24.263" transform="translate(575.737 287.868)" fill="#3f9c35"/>
        <rect id="Rectangle_2801" data-name="Rectangle 2801" width="48.526" height="16.175" transform="translate(575.737 287.868)" fill="#ed2939"/>
        <rect id="Rectangle_2802" data-name="Rectangle 2802" width="48.526" height="8.088" transform="translate(575.737 287.868)" fill="#0097c3"/>
        <circle id="Ellipse_112" data-name="Ellipse 112" cx="3.639" cy="3.639" r="3.639" transform="translate(595.552 296.361)" fill="#fff"/>
        <circle id="Ellipse_113" data-name="Ellipse 113" cx="3.033" cy="3.033" r="3.033" transform="translate(596.967 296.967)" fill="#ed2939"/>
        <path id="Path_736" data-name="Path 736" d="M603.235,297.978l.387,1.088,1.043-.5-.5,1.043,1.088.387-1.088.387.5,1.043-1.043-.5-.387,1.088-.387-1.088-1.043.5.5-1.043L601.213,300l1.088-.387-.5-1.043,1.043.5Z" fill="#fff"/>
      </g>
    </g>
  </g>
</svg>
