<svg xmlns="http://www.w3.org/2000/svg" width="50" height="3" viewBox="0 0 50 3">
  <rect id="Rectangle_1076" data-name="Rectangle 1076" width="3" height="50" rx="1.5" transform="translate(0 3) rotate(-90)" fill="#b7091c"/>
</svg>
