<svg xmlns="http://www.w3.org/2000/svg" width="27.118" height="38.025" viewBox="0 0 27.118 38.025">
  <g id="flask" transform="translate(0.002 0)">
    <path id="Path_749" data-name="Path 749" d="M26.84,32.945,18.8,13.345a8.943,8.943,0,0,1-.672-3.41V4.755a2.075,2.075,0,0,1,.612-1.477,2.531,2.531,0,0,0,.746-1.8V.743A.743.743,0,0,0,18.742,0H8.373A.743.743,0,0,0,7.63.743v.734a2.53,2.53,0,0,0,.746,1.8,2.075,2.075,0,0,1,.612,1.477v5.18a8.938,8.938,0,0,1-.672,3.41L6.106,18.731l0,.006L.275,32.945a3.683,3.683,0,0,0,3.407,5.081H23.432a3.683,3.683,0,0,0,3.407-5.081ZM9.69,13.909a10.416,10.416,0,0,0,.783-3.973V4.755A3.551,3.551,0,0,0,9.426,2.228a1.055,1.055,0,0,1-.311-.742H18a1.055,1.055,0,0,1-.311.742,3.551,3.551,0,0,0-1.047,2.527v5.18a10.421,10.421,0,0,0,.783,3.973l1.793,4.371H7.9ZM25.258,35.566a2.165,2.165,0,0,1-1.825.974H3.682a2.2,2.2,0,0,1-2.176-2.516H2.729a.743.743,0,0,0,0-1.485H2.047L2.9,30.46H4.152a.743.743,0,0,0,0-1.485H3.509l.853-2.079H5.65a.743.743,0,1,0,0-1.485H4.972l.853-2.079H7.148a.743.743,0,0,0,0-1.485H6.434l.853-2.079h12.54l5.639,13.744a2.166,2.166,0,0,1-.208,2.058Zm0,0" transform="translate(0 0)" fill="#b7091c"/>
    <path id="Path_750" data-name="Path 750" d="M294.2,438.461a.743.743,0,0,0-1.375.563l0,.009a.743.743,0,1,0,1.375-.562Zm0,0" transform="translate(-271.031 -405.47)" fill="#b7091c"/>
    <path id="Path_751" data-name="Path 751" d="M246.921,323.208l-2.66-6.483a.743.743,0,1,0-1.374.564l2.66,6.483a.743.743,0,0,0,1.374-.564Zm0,0" transform="translate(-224.799 -292.776)" fill="#b7091c"/>
  </g>
</svg>
