<svg xmlns="http://www.w3.org/2000/svg" width="39.358" height="34.99" viewBox="0 0 39.358 34.99">
  <g id="cleaver-knife" transform="translate(0 -26.083)">
    <path id="Path_745" data-name="Path 745" d="M98.813,309.005a.628.628,0,1,0,.889,0A.629.629,0,0,0,98.813,309.005Z" transform="translate(-90.37 -259.061)" fill="#b7091c"/>
    <path id="Path_746" data-name="Path 746" d="M68.289,339.529a.628.628,0,1,0,.889,0A.629.629,0,0,0,68.289,339.529Z" transform="translate(-62.402 -287.029)" fill="#b7091c"/>
    <path id="Path_747" data-name="Path 747" d="M39.175,35.726l-9.459-9.459a.628.628,0,0,0-.888,0L.925,54.17a3.175,3.175,0,0,0,0,4.48l1.5,1.5a3.172,3.172,0,0,0,4.48,0l1.2-1.2a.628.628,0,0,0,0-.888,1.912,1.912,0,0,1,0-2.7l2.879-2.879a.628.628,0,0,0-.888-.888L7.211,54.47a3.17,3.17,0,0,0-.4,3.992l-.8.8a1.914,1.914,0,0,1-2.7,0l-1.5-1.5a1.919,1.919,0,0,1,0-2.7l7.225-7.225,9.015,9.015a.628.628,0,0,0,.826.054A110.267,110.267,0,0,0,29.722,47.4a110.246,110.246,0,0,0,9.507-10.844A.628.628,0,0,0,39.175,35.726ZM28.834,46.508A109.02,109.02,0,0,1,18.55,55.57L9.926,46.946,29.272,27.6,37.9,36.224A109.02,109.02,0,0,1,28.834,46.508Z" transform="translate(0 0)" fill="#b7091c"/>
    <path id="Path_748" data-name="Path 748" d="M194.945,137.19a.628.628,0,1,0,.787.979,110.009,110.009,0,0,0,16.777-16.777.628.628,0,0,0-.979-.787,108.763,108.763,0,0,1-16.586,16.586Z" transform="translate(-178.405 -86.391)" fill="#b7091c"/>
  </g>
</svg>
