<svg xmlns="http://www.w3.org/2000/svg" width="37.956" height="37.924" viewBox="0 0 37.956 37.924">
  <g id="bubbles" transform="translate(0.015 -0.18)">
    <path id="Path_730" data-name="Path 730" d="M24.661,80.16a13.165,13.165,0,0,0-8.849,3.4,8.849,8.849,0,1,0-3.856,13.726,12.839,12.839,0,0,0,.663,1.72,6.949,6.949,0,1,0,10.534,7.6A13.27,13.27,0,1,0,24.661,80.16ZM1.274,89.01a7.572,7.572,0,0,1,13.632-4.551,13.169,13.169,0,0,0-3.519,8.976,13.36,13.36,0,0,0,.265,2.618A7.564,7.564,0,0,1,1.274,89.01ZM16.444,110.5a5.689,5.689,0,1,1,5.689-5.689A5.689,5.689,0,0,1,16.444,110.5Zm8.217-5.057a11.972,11.972,0,0,1-1.292-.079c.015-.183.028-.366.028-.553a6.953,6.953,0,0,0-9.662-6.4,11.738,11.738,0,0,1-.741-2.122,12.011,12.011,0,1,1,11.667,9.157Zm0,0" transform="translate(0 -73.659)" fill="#b7091c"/>
    <path id="Path_731" data-name="Path 731" d="M28.082,352.812a.632.632,0,1,0-1.264,0,1.9,1.9,0,0,1-1.9,1.9.632.632,0,0,0,0,1.264,1.9,1.9,0,0,1,1.9,1.9.632.632,0,1,0,1.264,0,1.9,1.9,0,0,1,1.9-1.9.632.632,0,0,0,0-1.264A1.9,1.9,0,0,1,28.082,352.812Zm-.632,3.18a3.151,3.151,0,0,0-.652-.652,3.15,3.15,0,0,0,.652-.652,3.151,3.151,0,0,0,.652.652A3.152,3.152,0,0,0,27.45,355.992Zm0,0" transform="translate(-22.383 -324.188)" fill="#b7091c"/>
    <path id="Path_732" data-name="Path 732" d="M362.817,5.869a.632.632,0,1,0,1.264,0,1.9,1.9,0,0,1,1.9-1.9.632.632,0,1,0,0-1.264,1.9,1.9,0,0,1-1.9-1.9.632.632,0,1,0-1.264,0,1.9,1.9,0,0,1-1.9,1.9.632.632,0,0,0,0,1.264A1.9,1.9,0,0,1,362.817,5.869Zm.632-3.18a3.153,3.153,0,0,0,.652.652,3.154,3.154,0,0,0-.652.652,3.149,3.149,0,0,0-.652-.652A3.148,3.148,0,0,0,363.449,2.689Zm0,0" transform="translate(-331.835)" fill="#b7091c"/>
    <path id="Path_733" data-name="Path 733" d="M349.978,218.708a1.9,1.9,0,0,1-1.9-1.9.632.632,0,0,0-1.264,0,1.9,1.9,0,0,1-1.9,1.9.632.632,0,0,0,0,1.264,1.9,1.9,0,0,1,1.9,1.9.632.632,0,0,0,1.264,0,1.9,1.9,0,0,1,1.9-1.9.632.632,0,0,0,0-1.264Zm-2.528,1.284a3.151,3.151,0,0,0-.652-.652,3.149,3.149,0,0,0,.652-.652,3.151,3.151,0,0,0,.652.652A3.153,3.153,0,0,0,347.449,219.992Zm0,0" transform="translate(-317.099 -198.934)" fill="#b7091c"/>
    <path id="Path_734" data-name="Path 734" d="M254.61,147.34a.632.632,0,0,0-.632-.632,1.9,1.9,0,0,1-1.9-1.9.632.632,0,0,0-1.264,0,1.9,1.9,0,0,1-1.9,1.9.632.632,0,1,0,0,1.264,1.9,1.9,0,0,1,1.9,1.9.632.632,0,1,0,1.264,0,1.9,1.9,0,0,1,1.9-1.9A.632.632,0,0,0,254.61,147.34Zm-3.16.652a3.151,3.151,0,0,0-.652-.652,3.15,3.15,0,0,0,.652-.652,3.15,3.15,0,0,0,.652.652A3.152,3.152,0,0,0,251.449,147.992Zm0,0" transform="translate(-228.685 -132.622)" fill="#b7091c"/>
    <path id="Path_735" data-name="Path 735" d="M96.289,328.18h1.264v1.264H96.289Zm0,0" transform="translate(-88.695 -302.084)" fill="#b7091c"/>
    <path id="Path_736" data-name="Path 736" d="M16.289,440.18h1.264v1.264H16.289Zm0,0" transform="translate(-15.016 -405.235)" fill="#b7091c"/>
    <path id="Path_737" data-name="Path 737" d="M428.082,394.076a1.9,1.9,0,1,0-1.9,1.9A1.9,1.9,0,0,0,428.082,394.076Zm-2.528,0a.632.632,0,1,1,.632.632A.632.632,0,0,1,425.553,394.076Zm0,0" transform="translate(-390.778 -361.027)" fill="#b7091c"/>
    <path id="Path_738" data-name="Path 738" d="M181.346,26.708a2.528,2.528,0,1,0-2.528,2.528A2.529,2.529,0,0,0,181.346,26.708Zm-3.793,0a1.264,1.264,0,1,1,1.264,1.264A1.264,1.264,0,0,1,177.553,26.708Zm0,0" transform="translate(-162.373 -22.104)" fill="#b7091c"/>
    <path id="Path_739" data-name="Path 739" d="M288.289,40.18h1.264v1.264h-1.264Zm0,0" transform="translate(-265.524 -36.839)" fill="#b7091c"/>
    <path id="Path_740" data-name="Path 740" d="M320.289,336.18h1.264v1.264h-1.264Zm0,0" transform="translate(-294.996 -309.452)" fill="#b7091c"/>
    <path id="Path_741" data-name="Path 741" d="M368.289,440.18h1.264v1.264h-1.264Zm0,0" transform="translate(-339.203 -405.235)" fill="#b7091c"/>
    <path id="Path_742" data-name="Path 742" d="M96.289,208.18h1.264v1.264H96.289Zm0,0" transform="translate(-88.695 -191.566)" fill="#b7091c"/>
    <path id="Path_743" data-name="Path 743" d="M32.059,119.725l1.264-.114c0-.03-.253-3.039,1.413-4.867a4.712,4.712,0,0,1,3.644-1.4v-1.264a5.916,5.916,0,0,0-4.58,1.811C31.759,116.129,32.048,119.58,32.059,119.725Zm0,0" transform="translate(-29.521 -103.054)" fill="#b7091c"/>
    <path id="Path_744" data-name="Path 744" d="M320.289,112.18v1.264c.316,0,7.683.135,8.857,8.933l1.253-.167c-1.323-9.915-10.021-10.03-10.109-10.03Zm0,0" transform="translate(-294.996 -103.151)" fill="#b7091c"/>
  </g>
</svg>
